{
    "id": 8059669,
    "@id": "http://schema.org/AggregateRating",
    "name": "AggregateRating",
    "title": "Aggregate Rating",
    "description": "The average rating based on multiple ratings or reviews.",
    "hidden": false,
    "sealed": false,
    "inherits": "Intangible",
    "version": "1.1",
    "fields": [
        {
            "name": "id",
            "title": "ID",
            "description": "The identifier of the item.",
            "type": "Integer",
            "nullable": false,
            "primary": true
        },
        {
            "@id": "http://schema.org/itemReviewed",
            "name": "itemReviewed",
            "title": "Item Reviewed",
            "description": "The item that is being reviewed/rated.",
            "type": "Thing"
        },
        {
            "@id": "http://schema.org/reviewCount",
            "name": "reviewCount",
            "title": "Review Count",
            "description": "The count of total number of reviews.",
            "type": "Integer"
        },
        {
            "@id": "http://schema.org/ratingCount",
            "name": "ratingCount",
            "title": "Rating Count",
            "description": "The count of total number of ratings.",
            "type": "Integer"
        }
    ],
    "privileges": [
        {
            "mask": 15,
            "type": "global"
        }
    ]
}