{
    "id": 7925112,
    "@id": "http://schema.org/Rating",
    "name": "Rating",
    "title": "Rating",
    "description": "A rating is an evaluation on a numeric scale, such as 1 to 5 stars.",
    "hidden": false,
    "sealed": false,
    "inherits": "Intangible",
    "version": "1.1",
    "fields": [
        {
            "name": "id",
            "title": "ID",
            "description": "The identifier of the item.",
            "type": "Integer",
            "nullable": false,
            "primary": true
        },
        {
            "@id": "http://schema.org/ratingValue",
            "name": "ratingValue",
            "title": "Rating Value",
            "description": "The rating for the content.",
            "type": "Number"
        },
        {
            "@id": "http://schema.org/bestRating",
            "name": "bestRating",
            "title": "Best Rating",
            "description": "The highest value allowed in this rating system. If bestRating is omitted, 5 is assumed.",
            "type": "Number"
        },
        {
            "@id": "http://schema.org/author",
            "name": "author",
            "title": "Author",
            "description": "The author of this content or rating. Please note that author is special in that HTML 5 provides a special mechanism for indicating authorship via the rel tag. That is equivalent to this and may be used interchangeably.",
            "type": "Person"
        },
        {
            "@id": "http://schema.org/worstRating",
            "name": "worstRating",
            "title": "Worst Rating",
            "description": "The lowest value allowed in this rating system. If worstRating is omitted, 1 is assumed.",
            "type": "Number"
        }
    ],
    "privileges": [
        {
            "mask": 15,
            "type": "global"
        }
    ]
}