{
    "name": "User",
    "id": 90,
    "title": "Users",
    "inherits": "Account",
    "hidden": false,
    "sealed": false,
    "abstract": false,
    "version": "1.4",
    "fields": [
        {
            "@id": "https://themost.io/schemas/id",
            "name": "id",
            "title": "Id",
            "description": "The identifier of the item.",
            "type": "Integer",
            "nullable": false,
            "primary": true
        },
        {
            "@id": "http://schema.org/name",
            "name": "name",
            "nullable": false
        },
        {
            "@id": "https://themost.io/schemas/accountType",
            "name": "accountType",
            "readonly": true,
            "value": "javascript:return 0;"
        },
        {
            "name": "lockoutTime",
            "title": "Lockout Time",
            "description": "The date and time that this account was locked out.",
            "type": "DateTime",
            "readonly": true
        },
        {
            "@id": "https://themost.io/schemas/logonCount",
            "name": "logonCount",
            "title": "Logon Count",
            "description": "The number of times the account has successfully logged on.",
            "type": "Integer",
            "value": "javascript:return 0;",
            "readonly": true
        },
        {
            "@id": "https://themost.io/schemas/enabled",
            "name": "enabled",
            "title": "Enabled",
            "description": "Indicates whether a user is enabled or not.",
            "type": "Boolean",
            "nullable": false,
            "value": "javascript:return true;"
        },
        {
            "@id": "https://themost.io/schemas/external",
            "name": "external",
            "title": "External",
            "description": "Indicates whether a user is external authenticated or not.",
            "type": "Boolean",
            "nullable": false,
            "value": "javascript:return false;"
        },
        {
            "@id": "https://themost.io/schemas/lastLogon",
            "name": "lastLogon",
            "title": "Last Logon",
            "description": "The last time and date the user logged on.",
            "type": "DateTime",
            "readonly": true
        },
        {
            "@id": "https://themost.io/schemas/groups",
            "name": "groups",
            "title": "User Groups",
            "description": "A collection of groups where user belongs.",
            "type": "Group",
            "expandable": true,
            "mapping": {
                "associationAdapter": "GroupMembers",
                "parentModel": "Group",
                "parentField": "id",
                "childModel": "User",
                "childField": "id",
                "associationType": "junction",
                "cascade": "delete",
                "select": [
                    "id",
                    "name",
                    "alternateName"
                ]
            }
        },
        {
            "@id": "http://schema.org/additionalType",
            "name": "additionalType",
            "value": "javascript:return this.model.name;",
            "readonly": true
        }
    ],
    "privileges": [
        {
            "mask": 15,
            "type": "global",
            "account": "Administrators"
        },
        {
            "mask": 15,
            "type": "global"
        }
    ],
    "constraints": [
        {
            "type": "unique",
            "fields": [
                "name"
            ]
        }
    ],
    "views": [
    ],
    "seed": [
        {
            "name": "anonymous",
            "description": "Anonymous User",
            "groups": [
                {
                    "name": "Guests"
                }
            ]
        }
    ]
}